Introduction to vjsim
…
  mass = 75,
  push_off_distance = 0.4,

  max_force = 3000,
  max_velocity = 4,

  start_perc = 0.8,
  threshold = 0.9,

  time_to_max_activation = 0.3
)

as_tibble(fgen_data)
#> # A tibble: 5,000 x 21
#>    current_time current_distance current_velocity  mass weight push_off_distan…
#>           <dbl>            <dbl>            <dbl> <dbl>  <dbl>            <dbl>
#>  1     0                     0.1                0    75   736.              0.4
#>  2     0.000250              0.1                0    75   736.              0.4
#>  3     0.000501              0.1                0    75   736.              0.4
#>  4     0.000751              0.1                0    75   736.              0.4
#>  5     0.00100               0.1                0    75   736.              0.4
#>  6     0.00125               0.1                0    75   736.              0.4
#>  7     0.00150               0.1                0    75   736.              0.4
#>  8     0.00175               0.1                0    75   736.              0.4
#>  9     0.00200               0.1                0    75   736.              0.4
#> 10     0.00225               0.1                0    75   736.              0.4
#> # … with 4,990 more rows, and 15 more variables: max_force <dbl>,
#> #   max_velocity <dbl>, start_perc <dbl>, threshold <dbl>,
#> #   time_to_max_activation <dbl>, push_off_perc <dbl>, force_percentage <dbl>,
#> #   potential_force <dbl>, initial_activation <dbl>, activation <dbl>,
#> #   generated_force <dbl>, viscous_force <dbl>, total_force <dbl>,
#> #   propulsive_force <dbl>, acceleration <dbl>
…
