Introduction to `vjsim` • vjsim
…
  mass = 75,
  push_off_distance = 0.4,

  max_force = 3000,
  max_velocity = 4,

  decline_rate = 1.5,
  peak_location = -0.1,

  time_to_max_activation = 0.3
)

as_tibble(as.data.frame(fgen_data))
#> # A tibble: 5,000 x 24
#>    kinematics.time kinematics.dist… kinematics.velo… system_constrai…
#>              <dbl>            <dbl>            <dbl>            <dbl>
#>  1        0                     0.1                0               75
#>  2        0.000250              0.1                0               75
#>  3        0.000501              0.1                0               75
#>  4        0.000751              0.1                0               75
#>  5        0.00100               0.1                0               75
#>  6        0.00125               0.1                0               75
#>  7        0.00150               0.1                0               75
#>  8        0.00175               0.1                0               75
#>  9        0.00200               0.1                0               75
#> 10        0.00225               0.1                0               75
#> # … with 4,990 more rows, and 20 more variables:
#> #   system_constraints.weight <dbl>,
#> #   system_constraints.push_off_distance <dbl>,
#> #   system_constraints.gravity_const <dbl>, fgen_parameters.max_force <dbl>,
#> #   fgen_parameters.max_velocity <dbl>, fgen_parameters.decline_rate <dbl>,
#> #   fgen_parameters.peak_location <dbl>,
#> #   fgen_parameters.time_to_max_activation <dbl>,
#> #   fgen_parameters.initial_activation <dbl>, fgen_output.push_off_perc <dbl>,
#> #   fgen_output.distance_to_take_off <dbl>, fgen_output.force_percentage <dbl>,
…
